{
	"info": {
		"_postman_id": "cf06d4da-850e-497d-a5a8-65018f3e3490",
		"name": "HTTP Response codes example",
		"schema": "https://schema.getpostman.com/json/collection/v2.1.0/collection.json"
	},
	"item": [
		{
			"name": "Invalid request - submarinos",
			"request": {
				"method": "GET",
				"header": [],
				"url": {
					"raw": "localhost:8081/get-product?product=submarinos",
					"host": [
						"localhost"
					],
					"port": "8081",
					"path": [
						"get-product"
					],
					"query": [
						{
							"key": "product",
							"value": "submarinos"
						}
					]
				}
			},
			"response": []
		},
		{
			"name": "Valid request - donitas",
			"request": {
				"method": "GET",
				"header": [],
				"url": {
					"raw": "localhost:8081/get-product?product=donitas",
					"host": [
						"localhost"
					],
					"port": "8081",
					"path": [
						"get-product"
					],
					"query": [
						{
							"key": "product",
							"value": "donitas"
						}
					]
				}
			},
			"response": []
		}
	],
	"protocolProfileBehavior": {}
}